<svg width="32" height="32" viewBox="0 0 32 32" fill="none" xmlns="http://www.w3.org/2000/svg">
<circle cx="16" cy="16" r="16" fill="white"/>
<path d="M8.3457 16L21.6177 16" stroke="black"/>
<path d="M17.5762 11.5757L22.0002 15.9997L17.5762 20.4236" stroke="black"/>
</svg>
